{
 "parking_id": "eeei",
 "spaces": [
  {
   "id": 1,
   "pts": [
    {
     "x": 370,
     "y": 204
    },
    {
     "x": 437,
     "y": 204
    },
    {
     "x": 342,
     "y": 325
    },
    {
     "x": 271,
     "y": 320
    }
   ]
  },
  {
   "id": 2,
   "pts": [
    {
     "x": 449,
     "y": 201
    },
    {
     "x": 530,
     "y": 200
    },
    {
     "x": 432,
     "y": 329
    },
    {
     "x": 349,
     "y": 326
    }
   ]
  },
  {
   "id": 3,
   "pts": [
    {
     "x": 538,
     "y": 199
    },
    {
     "x": 619,
     "y": 194
    },
    {
     "x": 531,
     "y": 331
    },
    {
     "x": 442,
     "y": 329
    }
   ]
  },
  {
   "id": 4,
   "pts": [
    {
     "x": 628,
     "y": 193
    },
    {
     "x": 716,
     "y": 188
    },
    {
     "x": 637,
     "y": 335
    },
    {
     "x": 540,
     "y": 333
    }
   ]
  },
  {
   "id": 5,
   "pts": [
    {
     "x": 722,
     "y": 187
    },
    {
     "x": 827,
     "y": 180
    },
    {
     "x": 759,
     "y": 336
    },
    {
     "x": 647,
     "y": 334
    }
   ]
  },
  {
   "id": 6,
   "pts": [
    {
     "x": 834,
     "y": 177
    },
    {
     "x": 951,
     "y": 171
    },
    {
     "x": 898,
     "y": 334
    },
    {
     "x": 772,
     "y": 334
    }
   ]
  },
  {
   "id": 7,
   "pts": [
    {
     "x": 960,
     "y": 171
    },
    {
     "x": 1086,
     "y": 164
    },
    {
     "x": 1056,
     "y": 331
    },
    {
     "x": 911,
     "y": 334
    }
   ]
  },
  {
   "id": 8,
   "pts": [
    {
     "x": 1094,
     "y": 164
    },
    {
     "x": 1228,
     "y": 157
    },
    {
     "x": 1229,
     "y": 328
    },
    {
     "x": 1068,
     "y": 331
    }
   ]
  },
  {
   "id": 9,
   "pts": [
    {
     "x": 1241,
     "y": 155
    },
    {
     "x": 1278,
     "y": 152
    },
    {
     "x": 1279,
     "y": 325
    },
    {
     "x": 1243,
     "y": 326
    }
   ]
  }
 ]
}