{
    "training": {
        "PKLot": {
            "location": "/home/agatha/Documents/datasets/PKLot/PKLotSegmented"
        },
        "UFPR04": {
            "pospath_sorted": "/home/agatha/Documents/parkvsn/ML/image-svm/hog_svm_UFPR04_smartwire/data/paths_sorted_posneg/UFPR04_halfway/UFPR04_pos_paths.json",
            "negpath_sorted": "/home/agatha/Documents/parkvsn/ML/image-svm/hog_svm_UFPR04_smartwire/data/paths_sorted_posneg/UFPR04_halfway/UFPR04_neg_paths.json"
        }
    },
    "testing": [{
        "name": "eeei_5th_solar_041017_a_morning",
        "location": "/home/agatha/Documents/datasets/EEEI/eeei_5th_solar_041017_a_morning",
        "marking_json": [{
                "name": "top_car",
                "json": "/home/agatha/Documents/parkvsn/ML/image-svm/testing_UFPR04/data/raw/eeei_5th_solar_a_morning_topcarbased.json"
            },
            {
                "name": "parkinglinebased",
                "json": "/home/agatha/Documents/parkvsn/ML/image-svm/testing_UFPR04/data/raw/eeei_5th_solar_a_morning_parkinglinebased.json"
            }
        ],
        "occupancy_json": [{
                "name": "top_car",
                "json": "/home/agatha/Documents/parkvsn/ML/image-svm/testing_UFPR04/data/preprocess/marked_eeei_5th_solar_041017_a_morning_topcarbased.json"
            },
            {
                "name": "parkinglinebased",
                "json": "/home/agatha/Documents/parkvsn/ML/image-svm/testing_UFPR04/data/preprocess/marked_eeei_5th_solar_041017_a_morning_parkinglinebased.json"
            }
        ]
    }]
}