{
    "hog": [{
        "id": "blk-2_cell-6",
        "window_size": [null, null],
        "orientations": 9,
        "cells_per_block": [2, 2],
        "pixels_per_cell": [6, 6],
        "transform_sqrt": 1,
        "block_norm": "L2-Hys"
    }]
}