{
    "lbp": [{
            "id": "pr-18_rc-31",
            "P": 8,
            "R": 1,
            "rows": 3,
            "cols": 1
        },
        {
            "id": "pr-18_rc-32",
            "P": 8,
            "R": 1,
            "rows": 3,
            "cols": 2
        },
        {
            "id": "pr-18_rc-33",
            "P": 8,
            "R": 1,
            "rows": 3,
            "cols": 3
        },
        {
            "id": "pr-18_rc-34",
            "P": 8,
            "R": 1,
            "rows": 3,
            "cols": 4
        }
    ]
}