{
    "hog": [{
        "id": "blk-4_cell-4",
        "window_size": [null, null],
        "orientations": 9,
        "pixels_per_cell": [4, 4],
        "cells_per_block": [4, 4],
        "transform_sqrt": 1,
        "block_norm": "L2-Hys"
    }]
}